<?xml version="1.0" encoding="UTF-8" standalone="no"?>
<!-- Generator: Adobe Illustrator 17.0.1, SVG Export Plug-In . SVG Version: 6.00 Build 0)  -->

<svg
   xmlns:dc="http://purl.org/dc/elements/1.1/"
   xmlns:cc="http://creativecommons.org/ns#"
   xmlns:rdf="http://www.w3.org/1999/02/22-rdf-syntax-ns#"
   xmlns:svg="http://www.w3.org/2000/svg"
   xmlns="http://www.w3.org/2000/svg"
   xmlns:xlink="http://www.w3.org/1999/xlink"
   xmlns:sodipodi="http://sodipodi.sourceforge.net/DTD/sodipodi-0.dtd"
   xmlns:inkscape="http://www.inkscape.org/namespaces/inkscape"
   version="1.1"
   x="0px"
   y="0px"
   width="86px"
   height="86px"
   viewBox="0 0 86 86"
   enable-background="new 0 0 86 86"
   xml:space="preserve"
   id="svg21"
   sodipodi:docname="harbour-mqttea.svg"
   inkscape:version="0.92.3 (2405546, 2018-03-11)"><metadata
   id="metadata27"><rdf:RDF><cc:Work
       rdf:about=""><dc:format>image/svg+xml</dc:format><dc:type
         rdf:resource="http://purl.org/dc/dcmitype/StillImage" /><dc:title></dc:title></cc:Work></rdf:RDF></metadata><defs
   id="defs25"><linearGradient
   id="linearGradient9064"
   inkscape:collect="always"><stop
     id="stop9060"
     offset="0"
     style="stop-color:#fcfcfc;stop-opacity:1" /><stop
     id="stop9062"
     offset="1"
     style="stop-color:#000000;stop-opacity:1" /></linearGradient><linearGradient
   inkscape:collect="always"
   id="linearGradient9031"><stop
     style="stop-color:#000000;stop-opacity:1"
     offset="0"
     id="stop9027" /><stop
     style="stop-color:#fdfdfd;stop-opacity:0.96052629"
     offset="1"
     id="stop9029" /></linearGradient><marker
   inkscape:stockid="Arrow1Lstart"
   orient="auto"
   refY="0.0"
   refX="0.0"
   id="Arrow1Lstart"
   style="overflow:visible"
   inkscape:isstock="true"><path
     id="path1106"
     d="M 0.0,0.0 L 5.0,-5.0 L -12.5,0.0 L 5.0,5.0 L 0.0,0.0 z "
     style="fill-rule:evenodd;stroke:#616161;stroke-width:1pt;stroke-opacity:1;fill:#ffffff;fill-opacity:1"
     transform="scale(0.8) translate(12.5,0)" /></marker><linearGradient
   inkscape:collect="always"
   id="linearGradient975"><stop
     style="stop-color:#ffffff;stop-opacity:1"
     offset="0"
     id="stop971" /><stop
     style="stop-color:#c3c3c3;stop-opacity:1"
     offset="1"
     id="stop973" /></linearGradient><inkscape:perspective
   sodipodi:type="inkscape:persp3d"
   inkscape:vp_x="0 : 43 : 1"
   inkscape:vp_y="0 : 1000 : 0"
   inkscape:vp_z="86 : 43 : 1"
   inkscape:persp3d-origin="43 : 28.666667 : 1"
   id="perspective937" />
	<linearGradient
   y2="0.7169"
   x2="85.2831"
   y1="85.2831"
   x1="0.7169"
   gradientUnits="userSpaceOnUse"
   id="SVGID_1_">
		<stop
   id="stop3"
   style="stop-color:#041224;stop-opacity:1"
   offset="0" />
		<stop
   id="stop5"
   style="stop-color:#51a1e9;stop-opacity:1"
   offset="1" />
	</linearGradient>
	
	
	
	
	
<linearGradient
   inkscape:collect="always"
   xlink:href="#SVGID_1_"
   id="linearGradient933"
   gradientUnits="userSpaceOnUse"
   x1="0.7169"
   y1="85.2831"
   x2="85.2831"
   y2="0.7169" /><linearGradient
   inkscape:collect="always"
   xlink:href="#linearGradient975"
   id="linearGradient1009"
   x1="27.384602"
   y1="51.125549"
   x2="58.202175"
   y2="51.125549"
   gradientUnits="userSpaceOnUse"
   gradientTransform="matrix(1.662796,0,0,1.8437521,-28.498597,-39.835168)" /><linearGradient
   inkscape:collect="always"
   xlink:href="#linearGradient9031"
   id="linearGradient9033"
   x1="43.314594"
   y1="34.136414"
   x2="43.314594"
   y2="29.50952"
   gradientUnits="userSpaceOnUse"
   gradientTransform="matrix(1.3341038,0,0,1.3341038,-14.70578,-7.0541779)" /><radialGradient
   inkscape:collect="always"
   xlink:href="#linearGradient9064"
   id="radialGradient9058"
   cx="43.340946"
   cy="35.819969"
   fx="43.340946"
   fy="35.819969"
   r="22.138529"
   gradientTransform="matrix(0.99862242,0,0,1.0713884,-0.28124218,-2.307128)"
   gradientUnits="userSpaceOnUse" /></defs><sodipodi:namedview
   pagecolor="#ffffff"
   bordercolor="#666666"
   borderopacity="1"
   objecttolerance="10"
   gridtolerance="10"
   guidetolerance="10"
   inkscape:pageopacity="0"
   inkscape:pageshadow="2"
   inkscape:window-width="1920"
   inkscape:window-height="1056"
   id="namedview23"
   showgrid="false"
   inkscape:zoom="4"
   inkscape:cx="-31.996771"
   inkscape:cy="40.697679"
   inkscape:window-x="1920"
   inkscape:window-y="0"
   inkscape:window-maximized="1"
   inkscape:current-layer="layer3"
   showguides="true"
   inkscape:guide-bbox="true"
   inkscape:snap-bbox="true"
   inkscape:bbox-nodes="true"
   inkscape:snap-bbox-edge-midpoints="true"
   inkscape:bbox-paths="true"
   inkscape:object-paths="true"
   inkscape:snap-smooth-nodes="true"
   inkscape:snap-object-midpoints="true"
   inkscape:snap-center="false"
   inkscape:snap-nodes="false"
   inkscape:snap-to-guides="true" />
<g
   id="Layer_2"
   display="none">
</g>

<g
   inkscape:groupmode="layer"
   id="layer1"
   inkscape:label="Border"
   sodipodi:insensitive="true"
   style="display:inline"><path
     style="fill:url(#linearGradient933);fill-opacity:1"
     d="m 1.7226562,0.30078125 c -0.78599995,0 -1.42187495,0.635875 -1.42187495,1.42187495 V 43 84.277344 c 0,0.786 0.635875,1.421875 1.42187495,1.421875 H 43 84.277344 c 0.786,0 1.421875,-0.635875 1.421875,-1.421875 V 43 1.7226562 c 0,-0.78599995 -0.635875,-1.42187495 -1.421875,-1.42187495 H 43 Z"
     id="path8"
     inkscape:connector-curvature="0" /></g><g
   inkscape:groupmode="layer"
   id="layer2"
   inkscape:label="Middleground"
   style="display:inline"
   sodipodi:insensitive="true"><rect
     style="opacity:0.37600002;fill:#ffffff;fill-opacity:1;fill-rule:nonzero;stroke:none;stroke-width:1.9043225"
     id="rect935"
     width="64.043159"
     height="64.050003"
     x="10.978843"
     y="10.975"
     ry="2.0161281" /></g><g
   inkscape:groupmode="layer"
   id="layer3"
   inkscape:label="Symbol"><g
     id="g9151"
     transform="translate(0,0.35355339)"><path
       sodipodi:nodetypes="scszs"
       inkscape:connector-curvature="0"
       id="path967"
       d="M 67.69015,35.632713 C 59.317079,68.026284 59.216289,67.911316 43.001632,68.060502 26.786976,68.209688 26.685061,68.141489 18.313114,35.632712 17.758547,33.479296 29.392493,32.06407 43.001632,32.06407 c 13.60914,0 25.191338,1.623346 24.688518,3.568643 z"
       style="opacity:1;fill:url(#linearGradient1009);fill-opacity:1;fill-rule:nonzero;stroke:none;stroke-width:2.55347466;stroke-linecap:butt;stroke-linejoin:round;stroke-miterlimit:4.19999981;stroke-dasharray:none;stroke-dashoffset:0;stroke-opacity:0.50967742;paint-order:stroke fill markers" /><g
       id="g9129"><path
         sodipodi:nodetypes="zzzzz"
         inkscape:connector-curvature="0"
         id="path9054"
         d="m 20.861471,35.753944 c -1e-6,-2.002607 16.066358,-2.153633 21.324573,-2.090411 5.258215,0.06322 22.952485,0.639803 22.952485,2.541857 0,1.902055 -17.421792,2.281951 -22.815957,2.281951 -5.394164,0 -21.461101,-0.730788 -21.461101,-2.733397 z"
         style="opacity:0.31499999;fill:url(#radialGradient9058);fill-opacity:1;fill-rule:nonzero;stroke:none;stroke-width:2.55347466;stroke-linecap:butt;stroke-linejoin:round;stroke-miterlimit:4.19999981;stroke-dasharray:none;stroke-dashoffset:0;stroke-opacity:0.50967742;paint-order:stroke fill markers" /><path
         style="opacity:0.347;fill:url(#linearGradient9033);fill-opacity:1;fill-rule:nonzero;stroke:none;stroke-width:2.55347466;stroke-linecap:butt;stroke-linejoin:round;stroke-miterlimit:4.19999981;stroke-dasharray:none;stroke-dashoffset:0;stroke-opacity:0.50967742;paint-order:stroke fill markers"
         d="m 20.861471,35.753944 c -1e-6,-2.002607 16.066358,-2.153633 21.324573,-2.090411 5.258215,0.06322 22.952485,0.639803 22.952485,2.541857 0,1.902055 -17.421792,2.281951 -22.815957,2.281951 -5.394164,0 -21.461101,-0.730788 -21.461101,-2.733397 z"
         id="rect1389"
         inkscape:connector-curvature="0"
         sodipodi:nodetypes="zzzzz" /></g></g><path
     sodipodi:nodetypes="aaaaaaaaaaaaaaa"
     inkscape:connector-curvature="0"
     id="path9097"
     d="m 29.743466,36.117364 c -0.271565,-1.326684 2.271046,-0.936445 2.31804,-2.321666 0.05069,-1.494108 -2.325965,-1.370916 -2.31804,-2.866886 0.0078,-1.476803 2.351395,-1.299999 2.31804,-2.776013 -0.03171,-1.40332 -2.223198,-1.015548 -2.31804,-2.412536 -0.08617,-1.269396 1.799043,-1.500928 1.76903,-2.776015 -0.02802,-1.190194 -2.05862,-1.302488 -1.76903,-2.412537 0.348944,-1.337564 1.992083,-0.519803 2.889994,0 0.745181,0.431386 1.741015,1.222343 1.76903,2.412537 0.03001,1.275087 -1.855208,1.506619 -1.76903,2.776015 0.09484,1.396988 2.286328,1.009216 2.318039,2.412536 0.03337,1.476014 -2.310215,1.29921 -2.318039,2.776013 -0.008,1.49597 2.368728,1.372778 2.318039,2.866886 -0.047,1.385221 -1.42743,1.917134 -2.318039,2.321666 -0.921446,0.418541 -2.609027,1.372624 -2.889994,0 z"
     style="opacity:0.84899998;fill:#ffdc52;fill-opacity:1;fill-rule:nonzero;stroke:none;stroke-width:0.8061102;stroke-linecap:butt;stroke-linejoin:round;stroke-miterlimit:4.19999981;stroke-dasharray:none;stroke-dashoffset:0;stroke-opacity:0.50967742;paint-order:stroke fill markers" /><path
     sodipodi:nodetypes="aaaaaaaaaaaaaaa"
     inkscape:connector-curvature="0"
     id="path9123"
     d="m 51.838004,36.254357 c -0.279714,-1.426155 2.339203,-1.006655 2.387607,-2.495737 0.05222,-1.606131 -2.395769,-1.473703 -2.387607,-3.081834 0.0081,-1.587532 2.421962,-1.397473 2.387607,-2.984152 -0.03265,-1.508537 -2.289919,-1.09169 -2.387607,-2.59342 -0.08875,-1.364572 1.853033,-1.613463 1.82212,-2.984152 -0.02885,-1.27943 -2.1204,-1.400143 -1.82212,-2.593421 0.359416,-1.437852 2.051867,-0.558776 2.976726,0 0.767543,0.46373 1.793263,1.313991 1.822119,2.593421 0.03091,1.370689 -1.910884,1.61958 -1.822119,2.984152 0.09769,1.50173 2.354942,1.084883 2.387605,2.59342 0.03437,1.586679 -2.379547,1.39662 -2.387605,2.984152 -0.0083,1.608131 2.439815,1.475703 2.387605,3.081834 -0.04841,1.489082 -1.470268,2.060873 -2.387605,2.495737 -0.9491,0.449923 -2.687326,1.475539 -2.976726,0 z"
     style="opacity:0.84899998;fill:#ffdc52;fill-opacity:1;fill-rule:nonzero;stroke:none;stroke-width:0.84823245;stroke-linecap:butt;stroke-linejoin:round;stroke-miterlimit:4.19999981;stroke-dasharray:none;stroke-dashoffset:0;stroke-opacity:0.50967742;paint-order:stroke fill markers" /><path
     style="opacity:0.84899998;fill:#ffdc52;fill-opacity:1;fill-rule:nonzero;stroke:none;stroke-width:0.92048484;stroke-linecap:butt;stroke-linejoin:round;stroke-miterlimit:4.19999981;stroke-dasharray:none;stroke-dashoffset:0;stroke-opacity:0.50967742;paint-order:stroke fill markers"
     d="m 40.286564,36.374714 c -0.292678,-1.605073 2.447612,-1.132947 2.49826,-2.808842 0.05464,-1.80763 -2.5068,-1.658586 -2.49826,-3.468469 0.0084,-1.786694 2.53421,-1.572791 2.49826,-3.358531 -0.03417,-1.69779 -2.396043,-1.228647 -2.49826,-2.918778 -0.09287,-1.535766 1.938913,-1.815882 1.906566,-3.358531 -0.03019,-1.439941 -2.218671,-1.575801 -1.906566,-2.918782 0.376073,-1.618238 2.146962,-0.628877 3.114683,0 0.803116,0.521906 1.876374,1.478841 1.906568,2.918782 0.03234,1.542649 -1.999446,1.822765 -1.906568,3.358531 0.10222,1.690131 2.464084,1.220988 2.498262,2.918778 0.03595,1.78574 -2.489831,1.571837 -2.498262,3.358531 -0.0086,1.809883 2.55289,1.660839 2.498262,3.468469 -0.05065,1.675895 -1.538411,2.319425 -2.498262,2.808842 -0.993087,0.506368 -2.811871,1.660655 -3.114683,0 z"
     id="path9125"
     inkscape:connector-curvature="0"
     sodipodi:nodetypes="aaaaaaaaaaaaaaa" /></g></svg>